{
  "items": [
    {
      "external_urls": {
        "spotify": "https://open.spotify.com/artist/25z14Qw0e8uN0dIaWVe2Mk"
      },
      "followers": {
        "href": null,
        "total": 3541
      },
      "genres": ["smooth jazz"],
      "href": "https://api.spotify.com/v1/artists/25z14Qw0e8uN0dIaWVe2Mk",
      "id": "25z14Qw0e8uN0dIaWVe2Mk",
      "images": [
        {
          "height": 640,
          "url": "https://i.scdn.co/image/398aeedb219a61b06e8628a2f72cc993871d55df",
          "width": 640
        },
        {
          "height": 320,
          "url": "https://i.scdn.co/image/90f57c3a89cab8bf796ccd278bc20b318e050c85",
          "width": 320
        },
        {
          "height": 160,
          "url": "https://i.scdn.co/image/d32016dc5837941de2acd1cd7ce7c1eaf95d50eb",
          "width": 160
        }
      ],
      "name": "Nestor Torres",
      "popularity": 38,
      "type": "artist",
      "uri": "spotify:artist:25z14Qw0e8uN0dIaWVe2Mk"
    },
    {
      "external_urls": {
        "spotify": "https://open.spotify.com/artist/05fG473iIaoy82BF1aGhL8"
      },
      "followers": {
        "href": null,
        "total": 4819254
      },
      "genres": ["alternative metal", "nu metal", "post-grunge", "rap metal"],
      "href": "https://api.spotify.com/v1/artists/05fG473iIaoy82BF1aGhL8",
      "id": "05fG473iIaoy82BF1aGhL8",
      "images": [
        {
          "height": 640,
          "url": "https://i.scdn.co/image/a7958184e76eaec48937485e75d9f7e6d26d097f",
          "width": 640
        },
        {
          "height": 320,
          "url": "https://i.scdn.co/image/0da8dc59c5ae97e7364425120ce0453d82947158",
          "width": 320
        },
        {
          "height": 160,
          "url": "https://i.scdn.co/image/bc218ce0a94f780ecd7741c522ba783ee0de3d2c",
          "width": 160
        }
      ],
      "name": "Slipknot",
      "popularity": 86,
      "type": "artist",
      "uri": "spotify:artist:05fG473iIaoy82BF1aGhL8"
    },
    {
      "external_urls": {
        "spotify": "https://open.spotify.com/artist/5ZNxiPcbKgaNcBrERMpqeu"
      },
      "followers": {
        "href": null,
        "total": 1984381
      },
      "genres": [
        "celtic metal",
        "medieval rock",
        "rock en espanol",
        "spanish metal"
      ],
      "href": "https://api.spotify.com/v1/artists/5ZNxiPcbKgaNcBrERMpqeu",
      "id": "5ZNxiPcbKgaNcBrERMpqeu",
      "images": [
        {
          "height": 640,
          "url": "https://i.scdn.co/image/8b3e6679265afb7afc73e7fff38811faf45d2f5a",
          "width": 640
        },
        {
          "height": 320,
          "url": "https://i.scdn.co/image/5b75ee6d0fb06165b9fb308e7f0c4c6b7a862fd8",
          "width": 320
        },
        {
          "height": 160,
          "url": "https://i.scdn.co/image/235bb39dd64c9c9f9362721971d4fc7418671b36",
          "width": 160
        }
      ],
      "name": "Mägo de Oz",
      "popularity": 71,
      "type": "artist",
      "uri": "spotify:artist:5ZNxiPcbKgaNcBrERMpqeu"
    },
    {
      "external_urls": {
        "spotify": "https://open.spotify.com/artist/1Qp56T7n950O3EGMsSl81D"
      },
      "followers": {
        "href": null,
        "total": 719868
      },
      "genres": ["metal"],
      "href": "https://api.spotify.com/v1/artists/1Qp56T7n950O3EGMsSl81D",
      "id": "1Qp56T7n950O3EGMsSl81D",
      "images": [
        {
          "height": 640,
          "url": "https://i.scdn.co/image/4d4e18d9cf20d3039201fb4f185e0e498275cb06",
          "width": 640
        },
        {
          "height": 320,
          "url": "https://i.scdn.co/image/d40e20479070b844405bb4788fc6bc618616ac28",
          "width": 320
        },
        {
          "height": 160,
          "url": "https://i.scdn.co/image/e406b600fc1bae338d27aea2b78623b63e4509a0",
          "width": 160
        }
      ],
      "name": "Ghost",
      "popularity": 71,
      "type": "artist",
      "uri": "spotify:artist:1Qp56T7n950O3EGMsSl81D"
    },
    {
      "external_urls": {
        "spotify": "https://open.spotify.com/artist/0Up8AZmXDecXiMirZhRLmw"
      },
      "followers": {
        "href": null,
        "total": 127702
      },
      "genres": ["cantautor", "ecuadorian pop", "latin", "latin pop"],
      "href": "https://api.spotify.com/v1/artists/0Up8AZmXDecXiMirZhRLmw",
      "id": "0Up8AZmXDecXiMirZhRLmw",
      "images": [
        {
          "height": 640,
          "url": "https://i.scdn.co/image/39b41aa0f90818329da6b7109d1c8f0e559da86a",
          "width": 640
        },
        {
          "height": 320,
          "url": "https://i.scdn.co/image/40663ca7a231fee20ad44d5a3d2a763385e4a6bd",
          "width": 320
        },
        {
          "height": 160,
          "url": "https://i.scdn.co/image/85de1481843feffe04c0b86eb15022a343c18e71",
          "width": 160
        }
      ],
      "name": "Alberto Plaza",
      "popularity": 51,
      "type": "artist",
      "uri": "spotify:artist:0Up8AZmXDecXiMirZhRLmw"
    },
    {
      "external_urls": {
        "spotify": "https://open.spotify.com/artist/0yNSzH5nZmHzeE2xn6Xshb"
      },
      "followers": {
        "href": null,
        "total": 1869373
      },
      "genres": [
        "latin",
        "latin afrobeat",
        "latin alternative",
        "latin hip hop",
        "puerto rican rock",
        "rap conciencia",
        "reggaeton",
        "rock en espanol",
        "tropical"
      ],
      "href": "https://api.spotify.com/v1/artists/0yNSzH5nZmHzeE2xn6Xshb",
      "id": "0yNSzH5nZmHzeE2xn6Xshb",
      "images": [
        {
          "height": 719,
          "url": "https://i.scdn.co/image/edabfb79fbf3d71ad9d0961a7b199a1470fe5372",
          "width": 1000
        },
        {
          "height": 460,
          "url": "https://i.scdn.co/image/a3c9dd492b973e5d5ebfd957b30325972c16d2d4",
          "width": 640
        },
        {
          "height": 144,
          "url": "https://i.scdn.co/image/896866e81c4a3d873ce3a28b2396f75212d192a0",
          "width": 200
        },
        {
          "height": 46,
          "url": "https://i.scdn.co/image/28b48ccc46a8cb61fbf3e67867fc7794acc6dc85",
          "width": 64
        }
      ],
      "name": "Calle 13",
      "popularity": 75,
      "type": "artist",
      "uri": "spotify:artist:0yNSzH5nZmHzeE2xn6Xshb"
    },
    {
      "external_urls": {
        "spotify": "https://open.spotify.com/artist/6wWVKhxIU2cEi0K81v7HvP"
      },
      "followers": {
        "href": null,
        "total": 3273221
      },
      "genres": [
        "alternative metal",
        "german metal",
        "industrial",
        "industrial metal",
        "industrial rock",
        "neue deutsche harte",
        "nu metal"
      ],
      "href": "https://api.spotify.com/v1/artists/6wWVKhxIU2cEi0K81v7HvP",
      "id": "6wWVKhxIU2cEi0K81v7HvP",
      "images": [
        {
          "height": 640,
          "url": "https://i.scdn.co/image/cdf344b2f5124d1f2f1217c45f12096730c70560",
          "width": 640
        },
        {
          "height": 320,
          "url": "https://i.scdn.co/image/d7bba2e8eb624d93d8cc7cb57d9ba5fb35f0f901",
          "width": 320
        },
        {
          "height": 160,
          "url": "https://i.scdn.co/image/019518862c16964fa30906a55ad2cd46f3f35c1a",
          "width": 160
        }
      ],
      "name": "Rammstein",
      "popularity": 85,
      "type": "artist",
      "uri": "spotify:artist:6wWVKhxIU2cEi0K81v7HvP"
    },
    {
      "external_urls": {
        "spotify": "https://open.spotify.com/artist/5lwmRuXgjX8xIwlnauTZIP"
      },
      "followers": {
        "href": null,
        "total": 8678778
      },
      "genres": ["bachata", "latin", "tropical"],
      "href": "https://api.spotify.com/v1/artists/5lwmRuXgjX8xIwlnauTZIP",
      "id": "5lwmRuXgjX8xIwlnauTZIP",
      "images": [
        {
          "height": 640,
          "url": "https://i.scdn.co/image/573323ce254851c2c0b616758c9e9413948cd16b",
          "width": 640
        },
        {
          "height": 320,
          "url": "https://i.scdn.co/image/c4cca3e1c615a35b5d4dc14619d0ccdefacb7f23",
          "width": 320
        },
        {
          "height": 160,
          "url": "https://i.scdn.co/image/22265d9251edcc040b5aaad9432322ac0e03b336",
          "width": 160
        }
      ],
      "name": "Romeo Santos",
      "popularity": 86,
      "type": "artist",
      "uri": "spotify:artist:5lwmRuXgjX8xIwlnauTZIP"
    },
    {
      "external_urls": {
        "spotify": "https://open.spotify.com/artist/1dfeR4HaWDbWqFHLkxsg1d"
      },
      "followers": {
        "href": null,
        "total": 18921676
      },
      "genres": ["glam rock", "rock"],
      "href": "https://api.spotify.com/v1/artists/1dfeR4HaWDbWqFHLkxsg1d",
      "id": "1dfeR4HaWDbWqFHLkxsg1d",
      "images": [
        {
          "height": 806,
          "url": "https://i.scdn.co/image/b040846ceba13c3e9c125d68389491094e7f2982",
          "width": 999
        },
        {
          "height": 516,
          "url": "https://i.scdn.co/image/af2b8e57f6d7b5d43a616bd1e27ba552cd8bfd42",
          "width": 640
        },
        {
          "height": 161,
          "url": "https://i.scdn.co/image/c06971e9ff81696699b829484e3be165f4e64368",
          "width": 200
        },
        {
          "height": 52,
          "url": "https://i.scdn.co/image/6dd0ffd270903d1884edf9058c49f58b03db893d",
          "width": 64
        }
      ],
      "name": "Queen",
      "popularity": 92,
      "type": "artist",
      "uri": "spotify:artist:1dfeR4HaWDbWqFHLkxsg1d"
    },
    {
      "external_urls": {
        "spotify": "https://open.spotify.com/artist/1r4hJ1h58CWwUQe3MxPuau"
      },
      "followers": {
        "href": null,
        "total": 16581097
      },
      "genres": ["reggaeton"],
      "href": "https://api.spotify.com/v1/artists/1r4hJ1h58CWwUQe3MxPuau",
      "id": "1r4hJ1h58CWwUQe3MxPuau",
      "images": [
        {
          "height": 640,
          "url": "https://i.scdn.co/image/d12586e8e67dffd2ea281d6eeefbe4b06b06b69a",
          "width": 640
        },
        {
          "height": 320,
          "url": "https://i.scdn.co/image/1ed85e35e0ab10006ae92356874089edd74368eb",
          "width": 320
        },
        {
          "height": 160,
          "url": "https://i.scdn.co/image/6955535e0726c8a967036ef3b2d83ee48231299b",
          "width": 160
        }
      ],
      "name": "Maluma",
      "popularity": 93,
      "type": "artist",
      "uri": "spotify:artist:1r4hJ1h58CWwUQe3MxPuau"
    },
    {
      "external_urls": {
        "spotify": "https://open.spotify.com/artist/4yscD4NQlCKXEpUvBV3nj8"
      },
      "followers": {
        "href": null,
        "total": 6374
      },
      "genres": [
        "baroque",
        "baroque ensemble",
        "classical performance",
        "early music ensemble",
        "historically informed performance",
        "orchestra"
      ],
      "href": "https://api.spotify.com/v1/artists/4yscD4NQlCKXEpUvBV3nj8",
      "id": "4yscD4NQlCKXEpUvBV3nj8",
      "images": [
        {
          "height": 640,
          "url": "https://i.scdn.co/image/25226219a3d35d0bb515624b3d7f8f683b0105b1",
          "width": 640
        },
        {
          "height": 320,
          "url": "https://i.scdn.co/image/8a925fd8caf5694e8d7a954ea9981faac20789f8",
          "width": 320
        },
        {
          "height": 160,
          "url": "https://i.scdn.co/image/9b0ca797c322041deccdfefae5b6a9c371430552",
          "width": 160
        }
      ],
      "name": "Tafelmusik Baroque Orchestra",
      "popularity": 46,
      "type": "artist",
      "uri": "spotify:artist:4yscD4NQlCKXEpUvBV3nj8"
    },
    {
      "external_urls": {
        "spotify": "https://open.spotify.com/artist/0SfsnGyD8FpIN4U4WCkBZ5"
      },
      "followers": {
        "href": null,
        "total": 3009273
      },
      "genres": ["edm", "progressive house", "progressive trance", "trance"],
      "href": "https://api.spotify.com/v1/artists/0SfsnGyD8FpIN4U4WCkBZ5",
      "id": "0SfsnGyD8FpIN4U4WCkBZ5",
      "images": [
        {
          "height": 640,
          "url": "https://i.scdn.co/image/ca02718b0e5c389073e8dba56417acd36f541523",
          "width": 640
        },
        {
          "height": 320,
          "url": "https://i.scdn.co/image/12b0a026351445e1731694da6d26047cbc02f6d8",
          "width": 320
        },
        {
          "height": 160,
          "url": "https://i.scdn.co/image/2204a5c80ce46cb150d587ab6340fc686fa9bcf6",
          "width": 160
        }
      ],
      "name": "Armin van Buuren",
      "popularity": 82,
      "type": "artist",
      "uri": "spotify:artist:0SfsnGyD8FpIN4U4WCkBZ5"
    },
    {
      "external_urls": {
        "spotify": "https://open.spotify.com/artist/0h1zs4CTlU9D2QtgPxptUD"
      },
      "followers": {
        "href": null,
        "total": 3797209
      },
      "genres": [
        "cantautor",
        "latin",
        "latin arena pop",
        "latin pop",
        "rock en espanol",
        "tropical"
      ],
      "href": "https://api.spotify.com/v1/artists/0h1zs4CTlU9D2QtgPxptUD",
      "id": "0h1zs4CTlU9D2QtgPxptUD",
      "images": [
        {
          "height": 640,
          "url": "https://i.scdn.co/image/fa047bfcb6298b8dfb65eb626ba2a765ed8d42eb",
          "width": 640
        },
        {
          "height": 320,
          "url": "https://i.scdn.co/image/3f57a92a47892421d87642e25a4725536bcbb820",
          "width": 320
        },
        {
          "height": 160,
          "url": "https://i.scdn.co/image/57184945139673af4acde46054054f5ae33d24e4",
          "width": 160
        }
      ],
      "name": "Ricardo Arjona",
      "popularity": 79,
      "type": "artist",
      "uri": "spotify:artist:0h1zs4CTlU9D2QtgPxptUD"
    },
    {
      "external_urls": {
        "spotify": "https://open.spotify.com/artist/1i8SpTcr7yvPOmcqrbnVXY"
      },
      "followers": {
        "href": null,
        "total": 18489601
      },
      "genres": ["reggaeton", "trap latino"],
      "href": "https://api.spotify.com/v1/artists/1i8SpTcr7yvPOmcqrbnVXY",
      "id": "1i8SpTcr7yvPOmcqrbnVXY",
      "images": [
        {
          "height": 640,
          "url": "https://i.scdn.co/image/490e6f87a88682ba890bfaedee0dd0f512fe5c1e",
          "width": 640
        },
        {
          "height": 320,
          "url": "https://i.scdn.co/image/fc712eaffbed83f15962e0ed98a2e6145492a8e5",
          "width": 320
        },
        {
          "height": 160,
          "url": "https://i.scdn.co/image/a9198e2ed3039f11d25c8068f8504f28acc8696d",
          "width": 160
        }
      ],
      "name": "Ozuna",
      "popularity": 97,
      "type": "artist",
      "uri": "spotify:artist:1i8SpTcr7yvPOmcqrbnVXY"
    },
    {
      "external_urls": {
        "spotify": "https://open.spotify.com/artist/3PfJE6ebCbCHeuqO4BfNeA"
      },
      "followers": {
        "href": null,
        "total": 226442
      },
      "genres": ["classical", "classical performance", "orchestra"],
      "href": "https://api.spotify.com/v1/artists/3PfJE6ebCbCHeuqO4BfNeA",
      "id": "3PfJE6ebCbCHeuqO4BfNeA",
      "images": [
        {
          "height": 640,
          "url": "https://i.scdn.co/image/bf87148d622227640d5c20ab5d7c13693d53f604",
          "width": 640
        },
        {
          "height": 320,
          "url": "https://i.scdn.co/image/cfdbeba41bdd5b8d9139579b6f404f0710d5f34b",
          "width": 320
        },
        {
          "height": 160,
          "url": "https://i.scdn.co/image/b293c1db68d870551a36c58b6ef05e8989a2796d",
          "width": 160
        }
      ],
      "name": "London Philharmonic Orchestra",
      "popularity": 68,
      "type": "artist",
      "uri": "spotify:artist:3PfJE6ebCbCHeuqO4BfNeA"
    },
    {
      "external_urls": {
        "spotify": "https://open.spotify.com/artist/3WrFJ7ztbogyGnTHbHJFl2"
      },
      "followers": {
        "href": null,
        "total": 13171543
      },
      "genres": ["british invasion", "merseybeat", "psychedelic rock", "rock"],
      "href": "https://api.spotify.com/v1/artists/3WrFJ7ztbogyGnTHbHJFl2",
      "id": "3WrFJ7ztbogyGnTHbHJFl2",
      "images": [
        {
          "height": 640,
          "url": "https://i.scdn.co/image/6b2a709752ef9c7aaf0d270344157f6cd2e0f1a7",
          "width": 640
        },
        {
          "height": 320,
          "url": "https://i.scdn.co/image/1047bf172446f2a815a99ab0a0395099d621be51",
          "width": 320
        },
        {
          "height": 160,
          "url": "https://i.scdn.co/image/0561b59a91a5e904ad2d192747715688d5f05012",
          "width": 160
        }
      ],
      "name": "The Beatles",
      "popularity": 90,
      "type": "artist",
      "uri": "spotify:artist:3WrFJ7ztbogyGnTHbHJFl2"
    },
    {
      "external_urls": {
        "spotify": "https://open.spotify.com/artist/003f4bk13c6Q3gAUXv7dGJ"
      },
      "followers": {
        "href": null,
        "total": 60772
      },
      "genres": ["classical", "classical performance", "orchestra"],
      "href": "https://api.spotify.com/v1/artists/003f4bk13c6Q3gAUXv7dGJ",
      "id": "003f4bk13c6Q3gAUXv7dGJ",
      "images": [
        {
          "height": 640,
          "url": "https://i.scdn.co/image/c6c59ecb176f564d2eb588e7cf2d61d156529dd3",
          "width": 640
        },
        {
          "height": 320,
          "url": "https://i.scdn.co/image/fbdd08df9bcf42483f09f4d710d11e4a154c75d1",
          "width": 320
        },
        {
          "height": 160,
          "url": "https://i.scdn.co/image/94c991d9e8b4681cf1aec471d1c09efc1811e3f8",
          "width": 160
        }
      ],
      "name": "Wiener Philharmoniker",
      "popularity": 69,
      "type": "artist",
      "uri": "spotify:artist:003f4bk13c6Q3gAUXv7dGJ"
    },
    {
      "external_urls": {
        "spotify": "https://open.spotify.com/artist/4rYCMf7ApPRVG3yjCbxJ8m"
      },
      "followers": {
        "href": null,
        "total": 1821
      },
      "genres": ["classical flute"],
      "href": "https://api.spotify.com/v1/artists/4rYCMf7ApPRVG3yjCbxJ8m",
      "id": "4rYCMf7ApPRVG3yjCbxJ8m",
      "images": [
        {
          "height": 1000,
          "url": "https://i.scdn.co/image/b6f85afff7987a9c8392b66aaedaa6c8aaf3c50e",
          "width": 1000
        },
        {
          "height": 640,
          "url": "https://i.scdn.co/image/366136efb1e6bc7d42e2c1cfa249f8ea1614f9db",
          "width": 640
        },
        {
          "height": 200,
          "url": "https://i.scdn.co/image/5e855778946061f2f30ff91b94af0d0bf092392b",
          "width": 200
        },
        {
          "height": 64,
          "url": "https://i.scdn.co/image/0dcedafbac1f8c44440938d35c903c775e855b49",
          "width": 64
        }
      ],
      "name": "Sharon Bezaly",
      "popularity": 28,
      "type": "artist",
      "uri": "spotify:artist:4rYCMf7ApPRVG3yjCbxJ8m"
    },
    {
      "external_urls": {
        "spotify": "https://open.spotify.com/artist/02OR1V0L1ODy7dDlBLTOvx"
      },
      "followers": {
        "href": null,
        "total": 97035
      },
      "genres": [
        "colombian rock",
        "latin metal",
        "latin rock",
        "metal colombiano",
        "rock en espanol"
      ],
      "href": "https://api.spotify.com/v1/artists/02OR1V0L1ODy7dDlBLTOvx",
      "id": "02OR1V0L1ODy7dDlBLTOvx",
      "images": [
        {
          "height": 640,
          "url": "https://i.scdn.co/image/4839facdfd8964d70af3dfd5962b37d7771ed463",
          "width": 640
        },
        {
          "height": 320,
          "url": "https://i.scdn.co/image/0240a84d5fa4e4000207b6292eb78ba45a4a771b",
          "width": 320
        },
        {
          "height": 160,
          "url": "https://i.scdn.co/image/bd770ad5ce2a01db96b2125c78928ea9ca783864",
          "width": 160
        }
      ],
      "name": "Kraken",
      "popularity": 45,
      "type": "artist",
      "uri": "spotify:artist:02OR1V0L1ODy7dDlBLTOvx"
    },
    {
      "external_urls": {
        "spotify": "https://open.spotify.com/artist/4NqS7DbPFYwZmniGHCPMpm"
      },
      "followers": {
        "href": null,
        "total": 87838
      },
      "genres": ["environmental", "meditation", "sleep"],
      "href": "https://api.spotify.com/v1/artists/4NqS7DbPFYwZmniGHCPMpm",
      "id": "4NqS7DbPFYwZmniGHCPMpm",
      "images": [
        {
          "height": 640,
          "url": "https://i.scdn.co/image/ac826fed2f4cbb05c6db394c27ac19747ed198b8",
          "width": 640
        },
        {
          "height": 320,
          "url": "https://i.scdn.co/image/a491705209a0d81e9b3a91bd2139efe43acc70e6",
          "width": 320
        },
        {
          "height": 160,
          "url": "https://i.scdn.co/image/7fc1ef642210289cab176dd01bc45df818108692",
          "width": 160
        }
      ],
      "name": "Nature Sounds",
      "popularity": 73,
      "type": "artist",
      "uri": "spotify:artist:4NqS7DbPFYwZmniGHCPMpm"
    }
  ],
  "total": 50,
  "limit": 20,
  "offset": 0,
  "href": "https://api.spotify.com/v1/me/top/artists",
  "previous": null,
  "next": "https://api.spotify.com/v1/me/top/artists?limit=20&offset=20"
}
